<?xml version="1.0" encoding="utf-8"?>
<!-- Generator: Adobe Illustrator 17.0.0, SVG Export Plug-In . SVG Version: 6.00 Build 0)  -->
<!DOCTYPE svg PUBLIC "-//W3C//DTD SVG 1.1//EN" "http://www.w3.org/Graphics/SVG/1.1/DTD/svg11.dtd">
<svg version="1.1" id="Layer_1" xmlns="http://www.w3.org/2000/svg" xmlns:xlink="http://www.w3.org/1999/xlink" x="0px" y="0px"
	 width="484.97px" height="768.951px" viewBox="0 0 484.97 768.951" enable-background="new 0 0 484.97 768.951"
	 xml:space="preserve">
<g>
	<path fill="#9A6029" d="M39.868,560.601c0-22.349,82.457-40.466,184.173-40.466s184.173,18.117,184.173,40.466l-27.979,174.032
		c0,18.954-69.93,34.319-156.193,34.319S67.848,753.586,67.848,734.632L39.868,560.601z"/>
	<path fill="#9A6029" d="M21.377,490.988c0-24.603,90.995-44.548,202.969-44.548s203.051,19.945,203.051,44.548v69.613
		c0,24.603-91.077,44.548-203.051,44.548S21.363,585.204,21.363,560.601L21.377,490.988z"/>
	<ellipse fill="#473300" cx="224.041" cy="490.988" rx="184.173" ry="40.466"/>
</g>
<g>
	<polygon fill="#3A2800" points="325.397,489.951 335.397,491.951 339.397,478.951 345.397,484.951 353.397,484.951 
		361.397,490.951 364.397,479.951 373.397,478.951 389.397,479.951 392.397,488.951 397.397,489.951 396.397,499.951 
		387.397,501.951 385.397,507.951 372.397,510.951 359.397,509.951 353.397,514.951 347.397,507.951 336.397,507.951 
		323.397,514.951 323.397,504.951 309.397,508.951 306.397,516.951 295.397,511.951 286.397,514.951 277.397,509.951 
		272.397,513.951 262.397,516.951 256.397,510.951 248.397,516.951 225.397,511.951 214.397,503.951 203.397,509.951 
		189.397,505.951 171.397,511.951 165.397,498.951 161.397,507.951 152.397,505.951 146.397,500.951 138.397,493.951 	"/>
	<polygon fill="#3A2800" points="44.563,494.785 46.48,500.201 53.105,502.243 56.418,504.264 63.74,504.941 65.069,509.613 
		75.066,510.949 80.398,513.617 93.064,516.951 97.064,513.618 103.064,516.951 108.563,514.284 103.397,512.285 103.397,503.951 
		93.063,504.951 93.73,509.618 86.397,506.951 79.063,502.285 85.063,498.951 89.063,493.618 83.063,490.951 77.73,491.618 
		74.397,484.285 79.063,482.951 84.397,474.951 75.063,476.285 67.063,472.285 65.063,480.285 57.063,479.618 59.063,486.285 
		49.063,485.618 43.063,488.951 	"/>
	<polygon fill="#3A2800" points="98.397,477.951 98.397,471.951 103.73,471.618 108.397,474.285 112.397,467.618 116.397,473.618 
		113.73,480.285 104.397,480.951 105.063,484.285 97.73,486.285 	"/>
	<polygon fill="#3A2800" points="113.063,492.285 109.063,497.618 112.397,503.618 118.397,502.285 113.73,496.951 	"/>
	<polygon fill="#3A2800" points="140.73,507.451 147.397,510.285 147.397,515.951 155.063,516.285 163.73,517.618 166.397,521.618 
		156.397,523.618 144.397,518.951 135.063,519.618 137.063,513.618 131.063,505.618 	"/>
	<polygon fill="#3A2800" points="211.063,518.951 220.397,518.285 227.063,523.618 211.063,528.285 201.063,523.618 	"/>
	<polygon fill="#3A2800" points="343.73,473.618 348.397,476.951 356.397,473.618 348.397,468.951 	"/>
	<polygon fill="#3A2800" points="321.063,482.285 331.73,483.618 335.73,472.951 327.063,472.285 	"/>
</g>
<g>
	<path fill="#689A29" d="M131.397,493.951c0,0-1,11,100.511,11c79.698,0,84.489-11,84.489-11s244.234-444.86-79.798-429.859
		S131.397,493.951,131.397,493.951z"/>
	<path fill="#5C871E" d="M386.397,142.951c0,0,40.98,63.369-20,224c-41,108-56,124-56,124s-17,6-41,9c0,0,66-54,102-179
		S386.397,142.951,386.397,142.951z"/>
</g>
<path fill="#F1E2E2" d="M212.77,457.491c-7.013-1.206-11.72-7.875-10.513-14.897l2.057-11.966
	c1.207-7.022,7.871-11.737,14.884-10.531l11.952,2.054c7.013,1.206,11.72,7.875,10.513,14.897l-4.242,24.681l-8.403-1.444
	l4.242-24.681c0.408-2.375-1.184-4.631-3.556-5.039l-11.952-2.054c-2.372-0.408-4.626,1.187-5.034,3.562l-2.057,11.966
	c-0.408,2.375,1.184,4.631,3.556,5.039l11.952,2.054l-1.446,8.414L212.77,457.491z"/>
<path fill="none" stroke="#F1E2E2" stroke-width="2" stroke-linecap="round" stroke-miterlimit="10" d="M78.397,364.951
	c47,29,84,40,138,52c60-14,163-66,163-66"/>
<path fill="#894D1B" d="M421.397,503.951v60c-14,18-78,27-78,27s45.139-5.315,66-34
	C417.397,545.951,421.397,503.951,421.397,503.951z"/>
<path fill="#894D1B" d="M399.397,580.951c0,0-19,124-23,151s-111,31-111,31s91-12,100-37c8.193-22.757,26-142,26-142
	L399.397,580.951z"/>
<path fill="none" stroke="#000000" stroke-width="10" stroke-miterlimit="10" d="M195.382,356.004c0,0,4.5,13.499,32.998,11.999
	c28.499-1.5,41.998-19.499,41.998-19.499"/>
<g>
	<path d="M382.628,216.24c0,0,10.948-28.091,20.286-33.566s14.532,16.021,13.066,19.228c-5.195,11.366-8.327-10.534-11.547-6.854
		c-3.22,3.68-10.9,33.997-14.259,35.607c-3.358,1.61-6.476,1.629-6.476,1.629L382.628,216.24z"/>
	<path d="M76.248,236.686c0,0-6.11-26.953-16.093-31.138c-9.983-4.186-12.178,17.804-10.299,20.788
		c6.659,10.575,4.004-8.238,7.684-5.018c3.68,3.22,9.77,29.499,13.312,30.648s6.466,0.765,6.466,0.765L76.248,236.686z"/>
	<path opacity="0.8" fill="#00106F" d="M102.989,247.908c-11.488,4.604-2.876,50.384,12.279,59.369s59.661,7.787,72.455-4.835
		c18.52-18.271,26.743-51.064,8.629-57.646S123.241,239.791,102.989,247.908z"/>
	<path opacity="0.8" fill="#A61000" d="M356.118,231.016c11.998,3.037,9.545,49.555-4.282,60.475
		c-13.827,10.919-58.097,15.646-72.455,4.835c-20.783-15.648-33.291-47.058-16.212-55.988
		C280.248,231.408,334.967,225.662,356.118,231.016z"/>
	<path d="M383.699,232.285l-1.071-16.045c0,0-86.848,3.422-104.609,6.856c-17.762,3.434-34.609,15.968-47.578,15.794l-0.399,0.027
		c-12.831,1.896-31.167-8.29-49.228-9.333s-104.565,7.103-104.565,7.103l1.071,16.045c0,0,9.553,2.736,11.047,25.124
		s17.503,48.858,63.773,45.77c83.158-5.55,53.858-67.509,78.912-69.181l0.502-0.034c24.984-2.707,4.296,63.628,87.455,58.079
		c46.27-3.088,58.541-31.543,57.046-53.932C374.56,236.17,383.699,232.285,383.699,232.285z M187.723,302.442
		c-12.794,12.622-57.3,13.82-72.455,4.835c-15.155-8.985-23.768-54.765-12.279-59.369c20.252-8.117,75.249-9.693,93.363-3.112
		C214.466,251.378,206.243,284.171,187.723,302.442z M351.836,291.49c-13.827,10.919-58.097,15.646-72.455,4.835
		c-20.783-15.648-33.291-47.058-16.212-55.988c17.078-8.93,71.798-14.676,92.949-9.322
		C368.116,234.053,365.663,280.571,351.836,291.49z"/>
</g>
<path fill="#F1E7EF" d="M41.301,206.948c3.771,11.78,41.482,13.841,56.449,12.87c14.968-0.972,158.036,3.269,202.259-10.123
	c44.223-13.392,98.438-34.948,104.853-51.899S383.73,78.285,383.73,78.285s-22.855-52.389-89.393-58.592
	c-37.456-3.491-110.224-5.752-137.94,4.259c-55.809,20.157-103,74-110,99S41.301,206.948,41.301,206.948z"/>
<path d="M60.887,100.517l-6-37.498c0,0-37.498,11.999-38.998-4.5S45.905,17.02,53.388,16.521
	c22.499-1.5,71.996,26.999,71.996,26.999S86.397,60.451,60.887,100.517z"/>
<path d="M364.873,66.518c0,0,44.238-43.51,32.998-56.997c-22.499-26.999-109.495,11.999-109.495,11.999
	S361.85,40.085,364.873,66.518z"/>
<path fill="#D6D2D5" d="M361.397,58.951c0,0,25.667-29,29-35.667s-1.333-14-12.667-12c-11.333,2-52,24.333-52,24.333
	S352.063,44.285,361.397,58.951z"/>
<path fill="#D6D2D5" d="M65.397,59.618l36.667-14.667l14.667,6c0,0-29.333,11-44.667,41L65.397,59.618z"/>
<path fill="#D6D2D5" d="M45.397,202.951c2,10,11,8,30,9s165,6,206-2s65-21,65-21s-57,17-85,18s-185.926,2.677-200-5
	c-11-6-16-24-16-24S43.397,192.951,45.397,202.951z"/>
<path d="M127.541,88.195c-11.568,3.402-32.466,31.906-34.705,40.862c-2.239,8.956,3.918,33.026,6.717,37.504
	c2.799,4.478,26.868,22.39,39.743,22.39s34.705-15.113,44.221-26.868c9.516-11.755,17.352-31.906,10.076-47.579
	c-7.277-15.673-27.988-28.548-38.623-28.548C144.334,85.956,137.057,85.396,127.541,88.195z"/>
<path d="M283.397,78.451c-10.5,1.5-24,10-27.5,14s-11.5,18-13.5,25.5s2,30,3,33s14.5,14.5,23,18s23.5,6,32.5,4.5s33.5-7.5,38-14.5
	s11-35,9.5-45s-11.5-20.5-21.5-26.5S290.397,77.451,283.397,78.451z"/>
<path fill="#FFFFFF" d="M274.32,121.92c-8.156,2.33-10.563,15.437-9.75,19.5s11.375,9.75,19.5,5.688s9.75-13.813,7.313-18.688
	C288.945,123.545,280.007,120.295,274.32,121.92z"/>
<path fill="#FFFFFF" d="M147.688,147.461c4.458,7.282,17.817,6.085,21.538,4.202s6.391-13.659,0.262-20.444
	c-6.129-6.785-16.023-5.735-20.094-2.057C145.324,132.84,144.58,142.383,147.688,147.461z"/>
<path d="M207.063,187.618c0.843-5.903,28-6,31.333-3.333c3.333,2.667-10,13.333-14,14.667S206.397,192.285,207.063,187.618z"/>
<path opacity="0.1" d="M383.699,659.944c0,0,216.663,20.007,16.171,81.861c-22.688,6.999-43.473,11.054-43.473,11.054
	L383.699,659.944z"/>
</svg>
